Route : 6
Route : 9
Route : 12
Route : 7
Route : 3 19
Route : 17
Route : 22
Route : 23
Route : 2
Route : 4 11
Route : 10
Route : 13
Route : 15 24
Route : 20
Route : 5
Route : 0 1 18
Route : 8
Route : 21
Route : 14
Route : 16
1734.9437081151666